Modeling height growth and predicting missing heights
…
I can only predict heights for trees in year 13 and 18, and only if they have a height in the previous period. Furthermore, there may be issues with predicting heights for broken trees, if their previous height is for their pre-broken state. First, I’ll just predict heights for status 1, unbroken trees

broken_trees <- d_l %>%
  filter(
    status == 1 & get_cond(2, 3) | status == 31,
    is.na(ht),
    spp %in% c("ALRU2", "PISI", "SESE3", "PSMEM"),
    year %in% c("13", "18")
  )
d_l %>%
  group_by(tree_id) %>%
  filter(tree_id %in% broken_trees$tree_id, year %in% c("08", "13", "18"), get_cond(2,3) == lag(get_cond(2,3)))

## # A tibble: 154 x 23
## # Groups:   tree_id [77]
##    plot  treatment tree_id   spp   h_dist   azi year    dbh    ht    cr status
##    <chr> <chr>     <chr>     <chr>  <dbl> <dbl> <ord> <dbl> <dbl> <dbl>  <int>
##  1 1L40  L40       1L40.3653 PSMEM  14.8    132 08     36.6  21.3    20      1
##  2 1L40  L40       1L40.3653 PSMEM  14.8    132 18     42.7  NA      NA      1
##  3 1L40  L40       1L40.3663 SESE3  14.8    246 08     22.1  17.7    35      1
##  4 1L40  L40       1L40.3663 SESE3  14.8    246 13     26.4  20.7    30      1
##  5 1L40  L40       1L40.3669 SESE3  14.1    279 08     33.8  22.6    20      1
##  6 1L40  L40       1L40.3669 SESE3  14.1    279 18     39.1  NA      NA      1
##  7 1L80  L80       1L80.3386 SESE3   2.13     2 08     17.3  16.8    15      1
##  8 1L80  L80       1L80.3386 SESE3   2.13     2 18     17.3  NA      NA      1
##  9 1L80  L80       1L80.3388 SESE3   2.35     8 08     21.3  18.3    15      1
## 10 1L80  L80       1L80.3388 SESE3   2.35     8 18     22.6  NA      NA      1
## # ... with 144 more rows, and 12 more variables: bear <lgl>, rot <lgl>,
## #   notes <chr>, cc <int>, cond <chr>, live <lgl>, d_inc <dbl>, ht_inc <dbl>,
## #   ba <dbl>, ba_inc <dbl>, x <dbl>, y <dbl>
…
