Modeling BA increment
…
)

aic_out2 <- map(d_split2, ~ get_aic(form_list2, data = .x, method = "glm"))
aic_out2

## $PSMEM
## # A tibble: 24 x 4
##    row   formula                                                      aicc  rmse
##    <chr> <chr>                                                       <dbl> <dbl>
##  1 10    I(ba_inc + scale_val) ~ dbh + treat_density + year + (1 |~ 10413. 0.235
##  2 14    I(ba_inc + scale_val) ~ dbh * treat_density + year + (1 |~ 10414. 0.235
##  3 23    I(ba_inc + scale_val) ~ dbh * treat_density + year + year~ 10415. 0.234
##  4 8     I(ba_inc + scale_val) ~ dbh + treatment + year + (1 | plo~ 10415. 0.235
##  5 22    I(ba_inc + scale_val) ~ dbh * treat_density + year + year~ 10416. 0.235
##  6 12    I(ba_inc + scale_val) ~ dbh * treatment + year + (1 | plo~ 10416. 0.234
##  7 24    I(ba_inc + scale_val) ~ dbh * treat_density + year + year~ 10416. 0.234
##  8 18    I(ba_inc + scale_val) ~ dbh * treat_density * year + (1 |~ 10420. 0.234
##  9 11    I(ba_inc + scale_val) ~ dbh + treat_status + year + (1 | ~ 10425. 0.235
## 10 15    I(ba_inc + scale_val) ~ dbh * treat_status + year + (1 | ~ 10427. 0.235
## # ... with 14 more rows
## 
## $SESE3
## # A tibble: 24 x 4
##    row   formula                                                      aicc  rmse
##    <chr> <chr>                                                       <dbl> <dbl>
##  1 14    I(ba_inc + scale_val) ~ dbh * treat_density + year + (1 | ~ 2787. 0.214
##  2 23    I(ba_inc + scale_val) ~ dbh * treat_density + year + year:~ 2787. 0.213
##  3 24    I(ba_inc + scale_val) ~ dbh * treat_density + year + year:~ 2788. 0.213
##  4 18    I(ba_inc + scale_val) ~ dbh * treat_density * year + (1 | ~ 2788. 0.212
##  5 22    I(ba_inc + scale_val) ~ dbh * treat_density + year + year:~ 2788. 0.214
##  6 10    I(ba_inc + scale_val) ~ dbh + treat_density + year + (1 | ~ 2791. 0.216
##  7 3     I(ba_inc + scale_val) ~ dbh + treat_density + (1 | plot)    2794. 0.217
##  8 6     I(ba_inc + scale_val) ~ dbh + treat_density + (1 | plot)    2794. 0.217
##  9 12    I(ba_inc + scale_val) ~ dbh * treatment + year + (1 | plot) 2795. 0.214
## 10 8     I(ba_inc + scale_val) ~ dbh + treatment + year + (1 | plot) 2795. 0.216
## # ... with 14 more rows
…
