Bear and other damage
…
bd <- bd %>%
  group_by(tree_id) %>%
  mutate(
    bear_mag = as.numeric(get_cond(17, 18, 19, str = TRUE)),
    bear_new = bear & year == "08" | bear & !lag(bear) | bear_mag > lag(bear_mag),
    bear_new = if_else(is.na(bear_new), FALSE, bear_new)
    ) %>%
  select(-bear_mag) %>%
  ungroup()

bd %>% filter(bear_new)

## # A tibble: 252 x 22
##    plot  treatment tree_id   spp   year    dbh    cr status bear  rot   notes              cond     ba d_inc2 ht_inc2 ba_inc2 d_inc1 ht_inc1 ba_inc1 sdi_plot  ht_p bear_new
##    <chr> <chr>     <chr>     <chr> <fct> <dbl> <dbl>  <int> <lgl> <lgl> <chr>              <chr> <dbl>  <dbl>   <dbl>   <dbl>  <dbl>   <dbl>   <dbl>    <dbl> <dbl> <lgl>   
##  1 1H40  H40       1H40.1902 SESE3 08     37.6    40      1 TRUE  FALSE X                  ""    1110.  0       0         0   0.559   -0.671   34.2      449. 23.2  TRUE    
##  2 1H40  H40       1H40.1905 SESE3 08     19.3    20      1 TRUE  FALSE X                  ""     293.  0       0         0   0.0508   0.427    1.55     449. 11.3  TRUE    
##  3 1H40  H40       1H40.1907 SESE3 08     28.7    20      1 TRUE  FALSE Tag Sequence Break ""     647.  0       0         0   0.762    0.183   36.6      449. 20.4  TRUE    
##  4 1H40  H40       1H40.1916 SESE3 08     25.4    10      1 TRUE  FALSE X                  ""     507.  0       0         0   1.02     0.366   44.6      449. 18.0  TRUE    
##  5 1H40  H40       1H40.3008 PSMEM 13     32.0    30      1 TRUE  NA    <NA>               "18"   804.  0.864  -0.244    40.5 0.711    1.04    37.7      484. 22.2  TRUE    
##  6 1H40  H40       1H40.3032 SESE3 08     45.0    35      1 TRUE  FALSE X                  ""    1587.  0       0         0   1.02     0.610   75.8      449. 24.1  TRUE    
##  7 1H40  H40       1H40.3033 PISI  08     61.0    40      1 TRUE  FALSE X                  ""    2919.  0       0         0   1.88     0.122  194.       449. 31.1  TRUE    
##  8 1H80  H80       1H80.3526 PISI  08     50.0    35      1 TRUE  TRUE  X                  ""    1966.  0       0         0   2.18     0.792  190.      1162. 28.0  TRUE    
##  9 1H80  H80       1H80.3527 SESE3 08     20.3    15      1 TRUE  TRUE  X                  ""     324.  0       0         0   0.102    0.792    3.28    1162.  9.45 TRUE    
## 10 1H80  H80       1H80.3528 PSMEM 08     32.5    25      1 TRUE  TRUE  X                  ""     830.  0       0         0   1.12     0.975   62.0     1162. 24.4  TRUE    
## # ... with 242 more rows
…
